"VertexLitGeneric"
{
	"$basetexture" "models/player/items/mvm_loot/soldier/robot_helmet_blue"
	
	"$detail" "effects/tiledfire/fireLayeredSlowTiled512"
	"$detailscale" "5"
	"$detailblendfactor" 0
	"$detailblendmode" 1
	"$yellow" "0"

	"$phong" "1"
	"$phongexponent" "10"
	"$phongboost" "25"
	"$lightwarptexture" "models/player/pyro/pyro_lightwarp"
	"$phongfresnelranges"	"[.25 .5 4]"

	"$basemapalphaphongmask" "1"
	"$basephongexponent" "1"
	"$basephongboost" ".2"  

	"$rimlight" "1"
	"$rimlightexponent" ".014"
	"$rimlightboost" "2"

	// Cloaking
	"$cloakPassEnabled" "1"
	"Proxies"
	{
		"invis"
		{
		}
		"AnimatedTexture"
		{
			"animatedtexturevar" "$detail"
			"animatedtextureframenumvar" "$detailframe"
			"animatedtextureframerate" 30
		}
		"BurnLevel"
		{
			"resultVar" "$detailblendfactor"
		}

	}
}