"VertexLitGeneric"
{
	"$basetexture" "models/player/items/crafting/transmogrifier_cardboard"
	"$bumpmap" "models/effects/flat_normal"
	"$detail" "effects/tiledfire/fireLayeredSlowTiled512.vtf"	
	"$detailscale" "5"
	"$detailblendfactor" .01
	"$detailblendmode" 6
	"$yellow" "0"

	"$phong" "1"
	"$phongexponent" "10"
	"$phongboost" "1"	
//	"$lightwarptexture" "models/lightwarps/weapon_lightwarp"
	"$lightwarptexture" "models/player/pyro/pyro_lightwarp"
	"$phongfresnelranges"	"[2 1 5]"
	"$basemapalphaphongmask" "1"

	// Rim lighting parameters
	"$rimlight" "1"
	"$rimlightexponent" "4"	
	"$rimlightboost" "2"



	// Cloaking
	"$cloakPassEnabled" "1"

	"Proxies"
	{
		"invis"
		{
		}
		"AnimatedTexture"
		{
			"animatedtexturevar" "$detail"
			"animatedtextureframenumvar" "$detailframe"
			"animatedtextureframerate" 30
		}
		"BurnLevel"
		{
			"resultVar" "$detailblendfactor"
		}

	}
}