"VertexlitGeneric"
{
	"$baseTexture" "models\workshop\weapons\c_models\c_scatterdrum/c_scatterdrum"

	"$envmap" "env_cubemap"
	"$envmaptint" "[.085 .085 .1]"
	"$basealphaenvmapmask"		"1"


	"$phong" "1"
	"$phongexponent" "15"
	"$phongboost" "5"	
	"$lightwarptexture" "models\lightwarps\weapon_lightwarp"
	"$phongfresnelranges"	"[.5 .5 3]"
	"$halflambert" "1"

	"$basemapalphaphongmask" "1"

	// Rim lighting parameters
	"$rimlight" "1"			
	"$rimlightexponent" "6"	
	"$rimlightboost" "0.5"

	"360?$color2" "[ 0.5 0.5 0.5 ]"

	"$glowcolor" "1"

	// Cloaking
	"$cloakPassEnabled" "1"

	"$sheenPassEnabled" "1"

	"$sheenmap" 		"cubemaps\cubemap_sheen001"
	"$sheenmapmask" 		"Effects\AnimatedSheen\animatedsheen0"
	"$sheenmaptint" 		"[ 1 1 1 ]"
	"$sheenmapmaskframe" 	"0"
	"$sheenindex" 		"0"

	"$yellow" "0"

	"Proxies"
	{
		"AnimatedWeaponSheen"
		{
			"animatedtexturevar" 		"$sheenmapmask"
			"animatedtextureframenumvar" 	"$sheenmapmaskframe"
			"animatedtextureframerate" 		"40"
		}
		"invis"
		{
		}
	}
}
