"VertexLitGeneric"
{
	"$baseTexture" "models/weapons/c_models/c_knife/c_knife"
	"$basemapalphaphongmask" 1

	"$normalmapalphaenvmapmask" 1
	"$envmap" "env_cubemap"
	"$envmaptint" "[.35 .35 .35]"

	"$phong" "1"
	"$phongexponent" "25"
	"$phongboost" "5"	
	"$lightwarptexture" "models/lightwarps/weapon_lightwarp"
	"$phongfresnelranges"	"[.25 .5 1]"

	"$tempvar" "0"

	"$basephongexponent" "25"
	"$basephongboost" "5"

	"$commadd_phongexponent" "30"
	"$commadd_phongboost" 	"22.5"
	"$commweapon"		"0"


	"$rimlight" "1"
	"$rimlightexponent" "4"	
	"$rimlightboost" "2"

	"$glowcolor" "1"

	// Cloaking
	"$cloakPassEnabled" "1"
	"$sheenPassEnabled" "1"

	"$sheenmap" 		"cubemaps/cubemap_sheen001"
	"$sheenmapmask" 		"Effects/AnimatedSheen/animatedsheen0"
	"$sheenmaptint" 		"[ 1 1 1 ]"
	"$sheenmapmaskframe" 	"0"
	"$sheenindex" 		"0"

	"$yellow" "0"

	"Proxies"
	{
		"AnimatedWeaponSheen"
		{
			"animatedtexturevar" 		"$sheenmapmask"
			"animatedtextureframenumvar" 	"$sheenmapmaskframe"
			"animatedtextureframerate" 		"40"
		}
		"invis"
		{
		}
		"WeaponSkin"
		{
		}		
	}
}