"VertexlitGeneric"
{
	"$baseTexture" "models/player/items/scout/scout_henchboy_hat_blue"

	"$detail" "effects/tiledfire/fireLayeredSlowTiled512"
	"$detailscale" "5"
	"$detailblendfactor" .01
	"$detailblendmode" 6

	"$yellow" "0"
	"$lightwarptexture" "models/player/pyro/pyro_lightwarp"

	"$phong" "1"
	"$phongexponent" "200"
	"$phongboost" "15	"
	"$phongfresnelranges" "[.25 .5 1]"
	"$basemapalphaphongmask" "1"
	"$rimlight" "1"
	"$rimlightexponent" "10"
	"$rimlightboost" "1"

	"$cloakPassEnabled" "1"

	"Proxies"
	{
		"invis"
		{
		}
		"AnimatedTexture"
		{
			"animatedtexturevar" "$detail"
			"animatedtextureframenumvar" "$detailframe"
			"animatedtextureframerate" 30
		}
		"BurnLevel"
		{
			"resultVar" "$detailblendfactor"
		}

	}
}