"VertexLitGeneric"
{
	$baseTexture "models/weapons/c_models/c_ambassador/c_ambassador"
	$bumpmap "models/weapons/c_models/c_ambassador/c_ambassador_normal"
	$halflambert 1
	
	"$normalmapalphaenvmapmask" 1
	"$phong" "1"
	"$phongexponent" "5"
	"$phongboost" "10"	
	"$lightwarptexture" "models/weapons/c_models/c_ambassador/c_ambassador_lightwarp"
	"$phongfresnelranges"	"[.25 .5 1]"
	"$phongwarptexture"  "models/weapons/c_models/c_ambassador/c_ambassador_phongwarp"

	"$rimlight" "0.5"
	"$rimlightexponent" "2"	
	"$rimlightboost" "0.25"

	"360?$color2" "[ 0.9 0.8 0.8 ]"


	"$glowcolor" "1"

	// Cloaking
	"$cloakPassEnabled" "1"
	"$sheenPassEnabled" "1"

	"$sheenmap" 		"cubemaps/cubemap_sheen001"
	"$sheenmapmask" 		"Effects/AnimatedSheen/animatedsheen0"
	"$sheenmaptint" 		"[ 1 1 1 ]"
	"$sheenmapmaskframe" 	"0"
	"$sheenindex" 		"0"

	"$yellow" "0"

	"Proxies"
	{
		"AnimatedWeaponSheen"
		{
			"animatedtexturevar" 		"$sheenmapmask"
			"animatedtextureframenumvar" 	"$sheenmapmaskframe"
			"animatedtextureframerate" 		"40"
		}
		"invis"
		{
		}
		"WeaponSkin"
		{
		}
	}
}