"VertexlitGeneric"
{
	"$baseTexture" "models/workshop/weapons/c_models/c_caber/c_caber"

	"$bumpmap" "models/effects/flat_normal" 
	"$phong" "1"
	"$phongexponent" "25"
	"$phongboost" "1"	
	"$lightwarptexture" "models/lightwarps/weapon_lightwarp"
	"$phongfresnelranges"	"[0.25 0.5 1.0]"
	"$basemapalphaphongmask" "1"

	"$rimlight" "1"
	"$rimlightexponent" "10"	
	"$rimlightboost" "1"

	"$glowcolor" "1"


	// Cloaking
	"$cloakPassEnabled" "1"
	"$sheenPassEnabled" "1"

	"$sheenmap" 		"cubemaps/cubemap_sheen001"
	"$sheenmapmask" 		"Effects/AnimatedSheen/animatedsheen0"
	"$sheenmaptint" 		"[ 1 1 1 ]"
	"$sheenmapmaskframe" 	"0"
	"$sheenindex" 		"0"

	"$yellow" "0"

	"Proxies"
	{
		"AnimatedWeaponSheen"
		{
			"animatedtexturevar" 		"$sheenmapmask"
			"animatedtextureframenumvar" 	"$sheenmapmaskframe"
			"animatedtextureframerate" 		"40"
		}
		"invis"
		{
		}
	}
}