"VertexlitGeneric"
{
	"$baseTexture" "models\weapons\c_items/c_boxing_gloves_xmas"
	"$bumpmap" "models\weapons\c_items/c_boxing_gloves_normal"



	"$phong" "1"
	"$phongexponent" "30"
	"$phongboost" "4"	
//	"$lightwarptexture" "models/player/pyro/pyro_lightwarp"
	"$phongfresnelranges"	"[.25 .55 3]"
	"$halflambert" "0"
//	"$basemapalphaphongmask" "1"

	"$rimlight" "1"
	"$rimlightexponent" "3"
	"$rimlightboost" ".2"
	"$rimmask" "1"


	"$glowcolor" "1"

	// Cloaking
	"$cloakPassEnabled" "1"
	"$sheenPassEnabled" "1"

	"$sheenmap" 		"cubemaps\cubemap_sheen001"
	"$sheenmapmask" 		"Effects\AnimatedSheen\animatedsheen0"
	"$sheenmaptint" 		"[ 1 1 1 ]"
	"$sheenmapmaskframe" 	"0"
	"$sheenindex" 		"0"

	"$yellow" "0"

	"Proxies"
	{
		"AnimatedWeaponSheen"
		{
			"animatedtexturevar" 		"$sheenmapmask"
			"animatedtextureframenumvar" 	"$sheenmapmaskframe"
			"animatedtextureframerate" 		"40"
		}
		"invis"
		{
		}
	}
}