"VertexlitGeneric"
{
	"$baseTexture" "models\weapons\c_items/c_bow_thief"
		"$bumpmap" "models\weapons\c_items/c_bow_thief_n"

	"$phong" "1"
	"$phongexponent" "50"
	"$phongboost" "1"	
	"$lightwarptexture" "models\lightwarps\weapon_lightwarp"
	"$phongfresnelranges"	"[.25 .5 1]"
	"$basemapalphaphongmask" "1"

	"$rimlight" "1"
	"$rimlightexponent" "4"	
	"$rimlightboost" "1"


	"$glowcolor" "1"

	// Cloaking
	"$cloakPassEnabled" "1"
	"$sheenPassEnabled" "1"

	"$sheenmap" 		"cubemaps\cubemap_sheen001"
	"$sheenmapmask" 		"Effects\AnimatedSheen\animatedsheen0"
	"$sheenmaptint" 		"[ 1 1 1 ]"
	"$sheenmapmaskframe" 	"0"
	"$sheenindex" 		"0"

	"$yellow" "0"

	"Proxies"
	{
		"AnimatedWeaponSheen"
		{
			"animatedtexturevar" 		"$sheenmapmask"
			"animatedtextureframenumvar" 	"$sheenmapmaskframe"
			"animatedtextureframerate" 		"40"
		}
		"invis"
		{
		}
	}
}