"VertexLitGeneric"
{
	"$baseTexture" "models/weapons/c_items/c_carnival_mallet_blue"
	"$basemapalphaphongmask" "1"

	"$phong" "1"
	"$phongexponent" "50"
	"$phongboost" ".4"	
	"$lightwarptexture" "models/player/pyro/pyro_lightwarp"
	"$phongfresnelranges"	"[1.25 .5 2]"
	
	"$detail" "overlays/detail001"
	"$detailscale" "6"
	"$detailblendmode" "0"
	"$detailblendfactor" "1"
	
	"$rimlight" "1"												// To enable rim lighting (requires phong)
	"$rimlightexponent" "10"										// Exponent for phong component of rim lighting	
	"$rimlightboost" "1.5"						// Boost for ambient cube component of rim lighting

	"$glowcolor" "1"

	// Cloaking
	"$cloakPassEnabled" "1"
	"$sheenPassEnabled" "1"

	"$sheenmap" 		"cubemaps/cubemap_sheen001"
	"$sheenmapmask" 		"Effects/AnimatedSheen/animatedsheen0"
	"$sheenmaptint" 		"[ 1 1 1 ]"
	"$sheenmapmaskframe" 	"0"
	"$sheenindex" 		"0"

	"$yellow" "0"

	"Proxies"
	{
		"AnimatedWeaponSheen"
		{
			"animatedtexturevar" 		"$sheenmapmask"
			"animatedtextureframenumvar" 	"$sheenmapmaskframe"
			"animatedtextureframerate" 		"40"
		}
		"invis"
		{
		}
	}
}