"VertexLitGeneric"
{
	"$basetexture" "models/weapons/c_items/c_dex_shotgun"

	"$phong" "1"
	"$phongexponent" "15"
	"$phongboost" "1.3"	
	"$lightwarptexture" "models/lightwarps/weapon_lightwarp"
	"$phongfresnelranges"	"[1.5 .5 3]"

	"$basemapalphaphongmask" "1"
	
	"$rimlight" "1"						
	"$rimlightexponent" "20"				
	"$rimlightboost" ".25"

	"360?$color2" "[ 0.5 0.5 0.5 ]"

	"$glowcolor" "1"

	// Cloaking
	"$cloakPassEnabled" "1"
	"$sheenPassEnabled" "1"

	"$sheenmap" 		"cubemaps\cubemap_sheen001"
	"$sheenmapmask" 		"Effects\AnimatedSheen\animatedsheen0"
	"$sheenmaptint" 		"[ 1 1 1 ]"
	"$sheenmapmaskframe" 	"0"
	"$sheenindex" 		"0"

	"$yellow" "0"

	"Proxies"
	{
		"AnimatedWeaponSheen"
		{
			"animatedtexturevar" 		"$sheenmapmask"
			"animatedtextureframenumvar" 	"$sheenmapmaskframe"
			"animatedtextureframerate" 		"40"
		}
		"invis"
		{
		}
	}
}