"VertexlitGeneric"
{
	"$baseTexture" "models\weapons\c_items/c_double_barrel_gold"
	"$phong" "1"
	"$phongexponent" "100"
	"$phongboost" "10"	
	"$lightwarptexture" "models\lightwarps\weapon_lightwarp"
	"$phongfresnelranges"	"[.5 .5 3]"
	"$halflambert" "1"

	"$basemapalphaphongmask" "1"

	// Rim lighting parameters
	"$rimlight" "1"			
	"$rimlightexponent" "20"	
	"$rimlightboost" ".25"

	"$envmap" "cubemaps/cubemap_gold001"	
	"$envmaptint" "[2.5 2.5 1.15]"

	"$glowcolor" "1"

	// Cloaking
	"$cloakPassEnabled" "1"
	"$sheenPassEnabled" "1"

	"$sheenmap" 		"cubemaps\cubemap_sheen001"
	"$sheenmapmask" 		"Effects\AnimatedSheen\animatedsheen0"
	"$sheenmaptint" 		"[ 1 1 1 ]"
	"$sheenmapmaskframe" 	"0"
	"$sheenindex" 		"0"

	"$yellow" "0"

	"Proxies"
	{
		"AnimatedWeaponSheen"
		{
			"animatedtexturevar" 		"$sheenmapmask"
			"animatedtextureframenumvar" 	"$sheenmapmaskframe"
			"animatedtextureframerate" 		"40"
		}
		"invis"
		{
		}
	}
}