"VertexLitGeneric"
{
	"$baseTexture" "models/weapons/c_items/c_minigun_gold"
	
	"$phong" "1"
	"$phongexponent" "165"
	"$phongboost" "3"	
	"$lightwarptexture" "models/lightwarps/weapon_lightwarp"
	"$phongfresnelranges"	"[1.5 .5 3]"
	"$halflambert" "1"

	// Begin GOLD look

	"$envmap" "cubemaps/cubemap_gold001"	
	"$envmaptint" "[2.5 2.5 1.15]"
	
	// End GOLD look
	
	"$rimlight" "1"						
	"$rimlightexponent" "20"				
	"$rimlightboost" ".5"

	"360?$color2" "[ 0.6 0.6 0.6 ]"

	"$glowcolor" "1"

	// Cloaking
	"$cloakPassEnabled" "1"
	"$sheenPassEnabled" "1"

	"$sheenmap" 		"cubemaps/cubemap_sheen001"
	"$sheenmapmask" 		"Effects/AnimatedSheen/animatedsheen0"
	"$sheenmaptint" 		"[ 1 1 1 ]"
	"$sheenmapmaskframe" 	"0"
	"$sheenindex" 		"0"


	"$yellow" "0"

	"Proxies"
	{
		"AnimatedWeaponSheen"
		{
			"animatedtexturevar" 		"$sheenmapmask"
			"animatedtextureframenumvar" 	"$sheenmapmaskframe"
			"animatedtextureframerate" 		"40"
		}
		"invis"
		{
		}
	}
}