"VertexlitGeneric"
{
	"$baseTexture" "models\weapons\c_items\c_soda_popper"

	"$phong" "1"
	"$phongexponent" "15"
	"$phongboost" "5"
	"$lightwarptexture" "models\lightwarps\weapon_lightwarp"
	"$phongfresnelranges"	"[.25 1.5 20]"
	"$halflambert" "1"

	"$tempvar" "0"

	"$basephongexponent" "15"
	"$basephongboost" "5"

	"$commadd_phongexponent" "30"
	"$commadd_phongboost" 	"22.5"
	"$commweapon"		"0"

	"$basemapalphaphongmask" "1"



	"$glowcolor" "1"

	// Cloaking
	"$cloakPassEnabled" "1"
	"$sheenPassEnabled" "1"

	"$sheenmap" 		"cubemaps\cubemap_sheen001"
	"$sheenmapmask" 		"Effects\AnimatedSheen\animatedsheen0"
	"$sheenmaptint" 		"[ 1 1 1 ]"
	"$sheenmapmaskframe" 	"0"
	"$sheenindex" 		"0"

	"$yellow" "0"

	"Proxies"
	{
		"AnimatedWeaponSheen"
		{
			"animatedtexturevar" 		"$sheenmapmask"
			"animatedtextureframenumvar" 	"$sheenmapmaskframe"
			"animatedtextureframerate" 		"40"
		}
		"invis"
		{
		}
	}
}