"VertexLitGeneric"
{
	"$basetexture"	"models\weapons\c_items\c_xms_energydrink_bow"

	"$phong" "1"
	"$phongexponent" "25"
	"$phongboost" "5"	
//	"$phongtint" "[1 0 0]"
	"$lightwarptexture" "models\lightwarps\weapon_lightwarp"
	"$phongfresnelranges"	"[.25 .5 1]"
	"$basemapalphaphongmask" "1"

	"$rimlight" "1"
	"$rimlightexponent" "4"	
	"$rimlightboost" "1"

	"360?$color2" "[ 0.9 0.8 0.8 ]"


	"$glowcolor" "1"

	// Cloaking
	"$cloakPassEnabled" "1"
	"$sheenPassEnabled" "1"

	"$sheenmap" 		"cubemaps\cubemap_sheen001"
	"$sheenmapmask" 		"Effects\AnimatedSheen\animatedsheen0"
	"$sheenmaptint" 		"[ 1 1 1 ]"
	"$sheenmapmaskframe" 	"0"
	"$sheenindex" 		"0"

	"$yellow" "0"

	"Proxies"
	{
		"AnimatedWeaponSheen"
		{
			"animatedtexturevar" 		"$sheenmapmask"
			"animatedtextureframenumvar" 	"$sheenmapmaskframe"
			"animatedtextureframerate" 		"40"
		}
		"invis"
		{
		}
	}
}