"VertexlitGeneric"
{
	"$baseTexture" "models/workshop/weapons/c_models/c_buffalo_steak/c_buffalo_steak"
	"$basemapalphaphongmask" 1
	"$lightwarptexture" "models/lightwarps/weapon_lightwarp"
	
	//phong properties
	"$phong"	"1"
	"$phongboost"	"1"
	"$phongexponent"	"80"
	"$phongfresnelranges"	"[1 2 2.5]"
	"$rimlight"	"1"
	"$rimlightexponent"	"1"


	"$glowcolor" "1"

	// Cloaking
	"$cloakPassEnabled" "1"
	"$sheenPassEnabled" "1"

	"$sheenmap" 		"cubemaps/cubemap_sheen001"
	"$sheenmapmask" 		"Effects/AnimatedSheen/animatedsheen0"
	"$sheenmaptint" 		"[ 1 1 1 ]"
	"$sheenmapmaskframe" 	"0"
	"$sheenindex" 		"0"

	"$yellow" "0"

	"Proxies"
	{
		"AnimatedWeaponSheen"
		{
			"animatedtexturevar" 		"$sheenmapmask"
			"animatedtextureframenumvar" 	"$sheenmapmaskframe"
			"animatedtextureframerate" 		"40"
		}
		"invis"
		{
		}
	}
}