"VertexlitGeneric"
{
	"$baseTexture" "models/player/items/all_class/chess_hat_blue"
	"$detail" "effects/tiledfire/fireLayeredSlowTiled512.vtf"	
	"$detailscale" "5"
	"$detailblendfactor" .01
	"$detailblendmode" 6
	"$yellow" "0"
	
	"$basemapalphaphongmask" 1
	
	"$phong" "1"
	"$phongexponent" "50"
	"$phongboost" "2"
	"$lightwarptexture" "models/player/pyro/pyro_lightwarp"
	"$phongfresnelranges"	"[.15 1 4]"

	"$rimlight" "1"
	"$rimlightexponent" "4"
	"$rimlightboost" ".65"
	// Cloaking
	"$cloakPassEnabled" "1"

	"Proxies"
	{
		"invis"
		{
		}
		"AnimatedTexture"
		{
			"animatedtexturevar" "$detail"
			"animatedtextureframenumvar" "$detailframe"
			"animatedtextureframerate" 30
		}
		"BurnLevel"
		{
			"resultVar" "$detailblendfactor"
		}

	}
}