"VertexLitGeneric"
{
	"$basetexture" "models/player/hvyweapon/hvyweapon_blue_zombie"
	"$bumpmap" "models/player/hvyweapon/hvyweapon_normal"
	"$detail" "effects/tiledfire/fireLayeredSlowTiled512.vtf"	
	"$detailscale" "5"
	"$detailblendfactor" .01
	"$detailblendmode" 6

	"$alphatest" "1"
	"$nodecal" "1"

	"$yellow" "0"
	"$one" "1"

	"$phong" "1"
	"$phongexponent" "20"
	"$phongboost" "0"	
	"$lightwarptexture" "models/player/pyro/pyro_lightwarp"
	"$phongfresnelranges"	"[.3 1 8]"
	"$halflambert" "0"

	// Rim lighting parameters
	"$rimlight" "1"												// To enable rim lighting (requires phong)
	"$rimlightexponent" "15"										// Exponent for phong component of rim lighting	
	"$rimlightboost" ".25"										// Boost for ambient cube component of rim lighting

	"$sheenPassEnabled" "1"

	"$sheenmap" 		"cubemaps/cubemap_sheen001"
	"$sheenmapmask" 		"Effects/AnimatedSheen/animatedsheen0"
	"$sheenmaptint" 		"[ 1 1 1 ]"
	"$sheenmapmaskframe" 	"0"
	"$sheenindex" 		"0"

	// Cloaking
	"$cloakPassEnabled" "1"
	"Proxies"
	{
		"AnimatedWeaponSheen"
		{
			"animatedtexturevar" 		"$sheenmapmask"
			"animatedtextureframenumvar" 	"$sheenmapmaskframe"
			"animatedtextureframerate" 		"40"
		}
		"spy_invis"
		{
		}
		"AnimatedTexture"
		{
			"animatedtexturevar" "$detail"
			"animatedtextureframenumvar" "$detailframe"
			"animatedtextureframerate" 30
		}
		"BurnLevel"
		{
			"resultVar" "$detailblendfactor"
		}

	}
}