"VertexLitGeneric"
{
	"$basetexture"	"models/workshop/weapons/c_models/c_dumpster_device/c_dumpster_device"
	
	"$phong" "1"
	"$phongexponent" "15"
	"$phongboost" "3"	
	"$lightwarptexture" "models/lightwarps/weapon_lightwarp"
	"$phongfresnelranges"	"[.3 .5 3]"
	"$halflambert" "1"
	"$glowcolor" "1"

	"$tempvar" "0"

	"$basephongexponent" "12"
	"$basephongboost" "3"

	"$commadd_phongexponent" "30"
	"$commadd_phongboost" 	"22.5"
	"$commweapon"		"0"

	"$basemapalphaphongmask" "1"
	
	"$rimlight" "1"						
	"$rimlightexponent" "20"				
	"$rimlightboost" ".25"

	"360?$color2" "[ 0.7 0.7 0.7 ]"

	// Cloaking
	"$cloakPassEnabled" "1"
	"$sheenPassEnabled" "1"

	"$sheenmap" 		"cubemaps/cubemap_sheen001"
	"$sheenmapmask" 		"Effects/AnimatedSheen/animatedsheen0"
	"$sheenmaptint" 		"[ 1 1 1 ]"
	"$sheenmapmaskframe" 	"0"
	"$sheenindex" 		"0"

	"$yellow" "0"

	"Proxies"
	{
		"AnimatedWeaponSheen"
		{
			"animatedtexturevar" 		"$sheenmapmask"
			"animatedtextureframenumvar" 	"$sheenmapmaskframe"
			"animatedtextureframerate" 		"40"
		}
		"invis"
		{
		}
	}
}