"VertexlitGeneric"
{
	"$baseTexture" "models/workshop/weapons/c_models/c_fists_of_steel/c_fists_of_steel"
	
	"$phong" "1"
	"$phongexponent" "10"
	"$phongboost" "1.0"	
	"$phongfresnelranges"	"[.25 .5 1]"
	"$basemapalphaphongmask" "1"
	"$basealphaenvmapmask" "1"
	"$envmap" "env_cubemap"
	"$envmaptint" "[0.9 0.5 0.2]"
	"$lightwarptexture" "models/workshop/weapons/c_models/c_fists_of_steel/c_fists_of_steel_lightwarp"
	"$phongwarptexture"  "models/workshop/weapons/c_models/c_fists_of_steel/c_fists_of_steel_phongwarp"
	"$rimlight" "1"
	"$rimlightexponent" "10"	
	"$rimlightboost" ".175"


	"$glowcolor" "1"

	// Cloaking
	"$cloakPassEnabled" "1"
	"$sheenPassEnabled" "1"

	"$sheenmap" 		"cubemaps/cubemap_sheen001"
	"$sheenmapmask" 		"Effects/AnimatedSheen/animatedsheen0"
	"$sheenmaptint" 		"[ 1 1 1 ]"
	"$sheenmapmaskframe" 	"0"
	"$sheenindex" 		"0"

	"$yellow" "0"

	"Proxies"
	{
		"AnimatedWeaponSheen"
		{
			"animatedtexturevar" 		"$sheenmapmask"
			"animatedtextureframenumvar" 	"$sheenmapmaskframe"
			"animatedtextureframerate" 		"40"
		}
		"invis"
		{
		}
	}
}