"VertexlitGeneric"
{
	"$baseTexture" "models/workshop/weapons/c_models/c_eternal_reward/c_eternal_reward_blue"
	"$bumpmap" "models/workshop/weapons/c_models/c_eternal_reward/c_eternal_reward_normal"

	"$envmap" "env_cubemap"
	"$envmaptint" "[.35 .35 .35]"

	"$phong" "1"
	"$phongexponent" "25"
	"$phongboost" "5"	
	"$lightwarptexture" "models/lightwarps/weapon_lightwarp"
	"$phongfresnelranges"	"[.25 .5 1]"

	"$basephongexponent" "15"
	"$basephongboost" "5"

	"$rimlight" "1"
	"$rimlightexponent" "4"	
	"$rimlightboost" "2"

	"$glowcolor" "1"

	"$cloakPassEnabled" "1"

	"$sheenPassEnabled" "1"

	"$sheenmap" 		"cubemaps/cubemap_sheen001"
	"$sheenmapmask" 		"Effects/AnimatedSheen/animatedsheen0"
	"$sheenmaptint" 		"[ 1 1 1 ]"
	"$sheenmapmaskframe" 	"0"
	"$sheenindex" 		"0"

	"$yellow" "0"

	"Proxies"
	{
		"AnimatedWeaponSheen"
		{
			"animatedtexturevar" 		"$sheenmapmask"
			"animatedtextureframenumvar" 	"$sheenmapmaskframe"
			"animatedtextureframerate" 		"40"
		}
		"invis"
		{
		}
	}
}